\relax 
\providecommand\hyper@newdestlabel[2]{}
\providecommand\HyperFirstAtBeginDocument{\AtBeginDocument}
\HyperFirstAtBeginDocument{\ifx\hyper@anchor\@undefined
\global\let\oldcontentsline\contentsline
\gdef\contentsline#1#2#3#4{\oldcontentsline{#1}{#2}{#3}}
\global\let\oldnewlabel\newlabel
\gdef\newlabel#1#2{\newlabelxx{#1}#2}
\gdef\newlabelxx#1#2#3#4#5#6{\oldnewlabel{#1}{{#2}{#3}}}
\AtEndDocument{\ifx\hyper@anchor\@undefined
\let\contentsline\oldcontentsline
\let\newlabel\oldnewlabel
\fi}
\fi}
\global\let\hyper@last\relax 
\gdef\HyperFirstAtBeginDocument#1{#1}
\providecommand\HyField@AuxAddToFields[1]{}
\providecommand\HyField@AuxAddToCoFields[2]{}
\select@language{italian}
\@writefile{toc}{\select@language{italian}}
\@writefile{lof}{\select@language{italian}}
\@writefile{lot}{\select@language{italian}}
\select@language{italian}
\@writefile{toc}{\select@language{italian}}
\@writefile{lof}{\select@language{italian}}
\@writefile{lot}{\select@language{italian}}
\@writefile{toc}{\contentsline {section}{\numberline {1}Introduzione}{4}{section.1}}
\@writefile{toc}{\contentsline {section}{\numberline {2}Analisi e Progettazione}{4}{section.2}}
\@writefile{toc}{\contentsline {subsection}{\numberline {2.1}Specifiche}{4}{subsection.2.1}}
\@writefile{toc}{\contentsline {subsection}{\numberline {2.2}Architettura a Task}{4}{subsection.2.2}}
\@writefile{toc}{\contentsline {subsection}{\numberline {2.3}Comportamento del sistema e FSM}{5}{subsection.2.3}}
\@writefile{toc}{\contentsline {subsubsection}{\numberline {2.3.1}Door}{5}{subsubsection.2.3.1}}
\@writefile{lof}{\contentsline {figure}{\numberline {1}{\ignorespaces Door}}{5}{figure.1}}
\newlabel{fig:DoorTask}{{1}{5}{Door}{figure.1}{}}
\@writefile{toc}{\contentsline {subsubsection}{\numberline {2.3.2}Park Assistant}{6}{subsubsection.2.3.2}}
\@writefile{lof}{\contentsline {figure}{\numberline {2}{\ignorespaces Park Assistant}}{6}{figure.2}}
\newlabel{fig:ParkAssistant}{{2}{6}{Park Assistant}{figure.2}{}}
\@writefile{toc}{\contentsline {subsubsection}{\numberline {2.3.3}Serial}{6}{subsubsection.2.3.3}}
\@writefile{toc}{\contentsline {section}{\numberline {3}Design dettagliato}{7}{section.3}}
\@writefile{toc}{\contentsline {subsection}{\numberline {3.1}C++}{7}{subsection.3.1}}
\@writefile{toc}{\contentsline {subsection}{\numberline {3.2}Java}{7}{subsection.3.2}}
\@writefile{toc}{\contentsline {section}{\numberline {4}Schema Fritzing}{8}{section.4}}
\@writefile{lof}{\contentsline {figure}{\numberline {3}{\ignorespaces Schema Fritzing }}{8}{figure.3}}
\newlabel{fig:Fritzing}{{3}{8}{Schema Fritzing}{figure.3}{}}
